Host Name	MGT IP Address	MAC	Location	Model	IQ Engine	Policy	WiFi0 Channel	WiFi0 Power	WiFi1 Channel	WiFi1 Power	MGT VLAN	WiFi0 Radio	WiFi1 Radio
AP-TRAT-A-07	192.168.14.92	9C5D128EB7C0	Universidad Icesi >> Campus_Principal >> Edificio E >> Piso 2	AP230	10.0.7.1 (10.0r7a)	NP-ICESI	6	5	44	12	14	clon_ng_ng0	clon_ng_ac0
AP-TRU-D-20	192.168.14.74	9C5D123F0F80	Universidad Icesi >> Campus_Principal >> Edificio D >> Piso 3	AP230	10.0.7.1 (10.0r7a)	NP-ICESI	6	10	149	12	14	Radio2.4Ghz	clon_ng_ac0
AP-TRAN-C-02	192.168.14.44	9C5D123FB680	Universidad Icesi >> Campus_Principal >> Casa_SAE	AP230	10.0.7.1 (10.0r7a)	NP-ICESI	11	10	36	12	14	clon_ng_ng0	clon_ng_ac0
AP-E04-P3-D-16	192.168.15.21	C413E2884FC0	Universidad Icesi >> Campus_Principal >> Edificio M >> Piso 3	AP250	10.0.7.1 (10.0r7a)	NP-ICESI	6	10	36	9	14	clon_ng_ng0	clon_ng_ac0
AP-TRAM-B-17	192.168.14.24	4018B1CE09C0	Universidad Icesi >> Campus_Principal >> Casa_SAE	AP141	6.5.12.0 (6.5r12)	NP-ICESI	11	10	157	20	14	clon_ng_ng0	radio_ng_na0
AP-TRAV-B-09	192.168.14.119	9C5D128ED500	Universidad Icesi >> Campus_Principal >> Edificio E >> Piso 4	AP230	10.0.7.1 (10.0r7a)	NP-ICESI	11	5	153	12	14	clon_ng_ng0	clon_ng_ac0
AP-TRS-F-12	192.168.14.178	F09CE9794D00	Universidad Icesi >> Campus_Principal >> Edificio D >> Piso 1	AP1130	10.0.8.0 (10.0r8)	NP-ICESI	11	9	48	12	14	Radio2.4Ghz	clon_ng_ac0
AP-TRJ-I-05	192.168.14.135	D854A210C4C0	Universidad Icesi >> Campus_Principal >> AAS >> Piso 1	AP230	10.0.7.1 (10.0r7a)	NP-ICESI	1	10	161	12	14	clon_ng_ng0	clon_ng_ac0
AP-TRD-B-05	192.168.14.30	9C5D12405300	Universidad Icesi >> Campus_Principal >> Edificio C >> Piso 3	AP230	10.0.8.0 (10.0r8)	NP-ICESI	1	5	157	12	14	Radio2.4Ghz	clon_ng_ac0
AP-TRAT-A-11	192.168.14.93	9C5D128EC040	Universidad Icesi >> Campus_Principal >> Edificio E >> Piso 2	AP230	10.0.7.1 (10.0r7a)	NP-ICESI	1	5	36	12	14	clon_ng_ng0	clon_ng_ac0
AP-TRS-A-16	192.168.14.61	9C5D12409240	Universidad Icesi >> Campus_Principal >> Edificio D >> Piso 1	AP230	10.0.7.1 (10.0r7a)	NP-ICESI	11	5	153	12	14	Radio2.4Ghz	clon_ng_ac0
AP-TRV-A-14	192.168.14.76	9C5D12409E80	Universidad Icesi >> Campus_Principal >> Edificio D >> Piso 4	AP230	10.0.7.1 (10.0r7a)	NP-ICESI	1	5	36	5	14	Radio2.4Ghz	clon_ng_ac0
AP-TRAM-A-10	192.168.14.11	E01C4158F680	Universidad Icesi >> Campus_Principal >> Casa_SAE	AP170	6.5.12.0 (6.5r12)	NP-ICESI	6	5	149	20	14	clon_ng_ng0	radio_ng_na0
AP-E01-P1-J-07	192.168.14.206	C413E27DC580	Universidad Icesi >> Campus_Principal >> Edificio N	AP250	10.0.7.1 (10.0r7a)	NP-ICESI	6	5	44	9	14	clon_ng_ng0	clon_ng_ac0
AP-TRJ-J-19	192.168.14.168	D854A210BCC0	Universidad Icesi >> Campus_Principal >> TRX >> Piso 2	AP230	10.0.7.1 (10.0r7a)	NP-ICESI	1	10	36	12	14	clon_ng_ng0	clon_ng_ac0
AP-TRAS-B-15	192.168.14.87	9C5D128EC440	Universidad Icesi >> Campus_Principal >> Edificio E >> Piso 1	AP230	10.0.7.1 (10.0r7a)	NP-ICESI	11	5	36	12	14	clon_ng_ng0	clon_ng_ac0
AP-TRU-D-05	192.168.14.75	9C5D1240C140	Universidad Icesi >> Campus_Principal >> Edificio D >> Piso 3	AP230	10.0.7.1 (10.0r7a)	NP-ICESI	11	5	44	12	14	Radio2.4Ghz	clon_ng_ac0
AP-TRAS-C-13	192.168.14.85	9C5D128EB580	Universidad Icesi >> Campus_Principal >> Edificio E >> Piso 1	AP230	10.0.7.1 (10.0r7a)	NP-ICESI	1	8	149	12	14	clon_ng_ng0	clon_ng_ac0
AP-TRH-B-04	192.168.14.164	D854A210B9C0	Universidad Icesi >> Campus_Principal >> Taller de diseno >> Piso 1	AP230	10.0.7.1 (10.0r7a)	NP-ICESI	1	10	165	12	14	clon_ng_ng0	clon_ng_ac0
AP-TRS-B-19	192.168.14.60	9C5D12409140	Universidad Icesi >> Campus_Principal >> Edificio D >> Piso 1	AP230	10.0.7.1 (10.0r7a)	NP-ICESI	6	5	165	12	14	Radio2.4Ghz	clon_ng_ac0
AP-TRR-A-01	192.168.14.151	D854A20BB740	Universidad Icesi >> Campus_Principal >> AAN >> Piso 1	AP230	10.0.7.1 (10.0r7a)	NP-ICESI	1	10	161	12	14	clon_ng_ng0	clon_ng_ac0
AP-TRU-B-14	192.168.14.72	9C5D123F0BC0	Universidad Icesi >> Campus_Principal >> Edificio D >> Piso 3	AP230	10.0.7.1 (10.0r7a)	NP-ICESI	1	5	165	12	14	Radio2.4Ghz	clon_ng_ac0
AP-TRJ-E-17	192.168.14.57	9C5D1240AEC0	Universidad Icesi >> Campus_Principal >> AAS >> Piso 2	AP230	10.0.8.0 (10.0r8)	NP-ICESI	11	10	36	12	14	clon_ng_ng0	clon_ng_ac0
AP-TRX-E-03	192.168.14.166	D854A210BB80	Universidad Icesi >> Campus_Principal >> TRX >> Piso 1	AP230	10.0.4.1 (10.0r4a)	NP-ICESI	1	7	40	20	14	radio_ng_ng0	radio_ng_ac0
AP-E04-P2-H-23	192.168.15.31	C413E2889F80	Universidad Icesi >> Campus_Principal >> Edificio M >> Piso 2	AP250	10.0.7.1 (10.0r7a)	NP-ICESI	6	10	36	9	14	clon_ng_ng0	clon_ng_ac0
AP-TRAN-C-08	192.168.14.21	4018B1CDF300	Universidad Icesi >> Campus_Principal >> Casa_SAE	AP141	6.5.12.0 (6.5r12)	NP-ICESI	1	7	149	15	14	clon_ng_ng0	clon_radio_ng_na0
AP-TRT-A-22	192.168.14.67	9C5D123E4BC0	Universidad Icesi >> Campus_Principal >> Edificio D >> Piso 2	AP230	10.0.7.1 (10.0r7a)	NP-ICESI	11	5	44	12	14	Radio2.4Ghz	clon_ng_ac0
AP-TRAW-A-06	192.168.14.120	9C5D128EEE80	Universidad Icesi >> Campus_Principal >> Edificio E >> Piso 5	AP230	10.0.7.1 (10.0r7a)	NP-ICESI	6	5	157	12	14	clon_ng_ng0	clon_ng_ac0
AP-TRY-A-11	192.168.14.163	D854A210BBC0	Universidad Icesi >> Campus_Principal >> Casa Orejuela >> Piso 1	AP230	10.0.7.1 (10.0r7a)	NP-ICESI	6	10	165	12	14	clon_ng_ng0	clon_ng_ac0
AP-E01-P1-F-11	192.168.14.203	C413E2882E00	Universidad Icesi >> Campus_Principal >> Edificio N	AP250	10.0.7.1 (10.0r7a)	NP-ICESI	1	5	36	9	14	clon_ng_ng0	clon_ng_ac0
AP-TRU-B-08	192.168.14.69	9C5D123F1240	Universidad Icesi >> Campus_Principal >> Edificio D >> Piso 3	AP230	10.0.7.1 (10.0r7a)	NP-ICESI	1	5	48	12	14	Radio2.4Ghz	clon_ng_ac0
AP-TRAM-E-09	192.168.14.15	4018B1CE36C0	Universidad Icesi >> Campus_Principal >> Casa_SAE	AP141	6.5.12.0 (6.5r12)	NP-ICESI	6	10	48	20	14	clon_ng_ng0	radio_ng_na0
AP-TRJ-W-21	192.168.14.170	D854A210B580	Universidad Icesi >> Campus_Principal >> AAN >> Piso 1	AP230	10.0.7.1 (10.0r7a)	NP-ICESI	1	6	165	12	14	clon_ng_ng0	clon_ng_ac0
AP-TRC-B-15	192.168.14.81	9C5D123F8600	Universidad Icesi >> Campus_Principal >> Edificio C >> Piso 2	AP230	10.0.8.0 (10.0r8)	NP-ICESI	1	5	157	12	14	Radio2.4Ghz	clon_ng_ac0
AP-TRT-D-08	192.168.14.66	9C5D123F1BC0	Universidad Icesi >> Campus_Principal >> Edificio D >> Piso 2	AP230	10.0.7.1 (10.0r7a)	NP-ICESI	1	5	157	12	14	Radio2.4Ghz	clon_ng_ac0
AP-TRQ-C-12 	192.168.14.159	D854A210BA80	Universidad Icesi >> Campus_Principal >> TRQ >> Piso 1	AP230	10.0.7.1 (10.0r7a)	NP-ICESI	1	10	165	12	14	clon_ng_ng0	clon_ng_ac0
AP-TRV-C-16	192.168.14.80	9C5D12402880	Universidad Icesi >> Campus_Principal >> Edificio D >> Piso 4	AP230	10.0.7.1 (10.0r7a)	NP-ICESI	1	5	161	12	14	Radio2.4Ghz	clon_ng_ac0
AP-E01-P1-G-22	192.168.14.205	C413E2860A40	Universidad Icesi >> Campus_Principal >> Edificio N	AP250	10.0.7.1 (10.0r7a)	NP-ICESI	1	9	157	12	14	clon_ng_ng0	clon_ng_ac0
CASA_SAN_JOAQUIN_2	192.168.241.246	9C5D12409E40	Universidad Icesi >> Casa San Joaquin >> Piso 1	AP230	10.0.7.1 (10.0r7a)	NP-JOAQUIN	11	10	161	12	1	clon_ng_ng0	clon_ng_ac0
AP-E04-P2-D-14	192.168.15.16	C413E26F2080	Universidad Icesi >> Campus_Principal >> Edificio M >> Piso 2	AP250	10.0.7.1 (10.0r7a)	NP-ICESI	1	5	165	12	14	clon_ng_ng0	clon_ng_ac0
AP-E04-P4-E-05	192.168.15.35	C413E287E800	Universidad Icesi >> Campus_Principal >> Edificio M >> Piso 4	AP250	10.0.7.1 (10.0r7a)	NP-ICESI	11	20	36	9	14	radio_ng_ng0	radio_ng_ac0
AP-E01-P1-K-17	192.168.14.208	C413E26F1C00	Universidad Icesi >> Campus_Principal >> Edificio N	AP250	10.0.7.1 (10.0r7a)	NP-ICESI	11	5	36	9	14	clon_ng_ng0	clon_ng_ac0
AP-TRJ-S-08	192.168.14.132	D854A210C380	Universidad Icesi >> Campus_Principal >> AAS >> Piso 1	AP230	10.0.7.1 (10.0r7a)	NP-ICESI	11	10	40	12	14	clon_ng_ng0	clon_ng_ac0
AP-TRV-F-15	192.168.14.160	D854A210BD00	Universidad Icesi >> Campus_Principal >> Edificio D >> Piso 4	AP230	10.0.7.1 (10.0r7a)	NP-ICESI	6	5	40	12	14	Radio2.4Ghz	clon_ng_ac0
AP-TRC-F-15	192.168.14.53	9C5D12409AC0	Universidad Icesi >> Campus_Principal >> Edificio C >> Piso 2	AP230	10.0.8.0 (10.0r8)	NP-ICESI	6	10	157	12	14	Radio2.4Ghz	clon_ng_ac0
AP-E04-P4-A-19	192.168.15.23	C413E287CB80	Universidad Icesi >> Campus_Principal >> Edificio M >> Piso 4	AP250	10.0.7.1 (10.0r7a)	NP-ICESI	6	18	48	9	14	radio_ng_ng0	radio_ng_ac0
AP-TRAS-A-21	192.168.14.90	9C5D128E9C40	Universidad Icesi >> Campus_Principal >> Edificio E >> Piso 1	AP230	10.0.7.1 (10.0r7a)	NP-ICESI	6	5	40	12	14	clon_ng_ng0	clon_ng_ac0
AP-TRAP-D-23	192.168.14.26	9C5D12405880	Universidad Icesi >> Campus_Principal >> Casa Rocha >> Piso 2	AP230	10.0.7.1 (10.0r7a)	NP-ICESI	1	10	36	12	14	clon_ng_ng0	clon_ng_ac0
AP-TRJ-W-22	192.168.14.171	D854A210BE40	Universidad Icesi >> Campus_Principal >> AAS >> Piso 1	AP230	10.0.7.1 (10.0r7a)	NP-ICESI	1	8	161	12	14	clon_ng_ng0	clon_ng_ac0
AP-E04-P2-F-07	192.168.15.17	C413E2880400	Universidad Icesi >> Campus_Principal >> Edificio M >> Piso 2	AP250	10.0.7.1 (10.0r7a)	NP-ICESI	1	10	165	12	14	clon_ng_ng0	clon_ng_ac0
AP-TRAV-C-01	192.168.14.116	9C5D128EDE80	Universidad Icesi >> Campus_Principal >> Edificio E >> Piso 4	AP230	10.0.7.1 (10.0r7a)	NP-ICESI	11	5	165	12	14	clon_ng_ng0	clon_ng_ac0
AP-TRV-F-02	192.168.14.79	9C5D12409B40	Universidad Icesi >> Campus_Principal >> Edificio D >> Piso 4	AP230	10.0.7.1 (10.0r7a)	NP-ICESI	1	6	157	12	14	Radio2.4Ghz	clon_ng_ac0
AP-TRAV-A-13	192.168.14.111	9C5D128EC100	Universidad Icesi >> Campus_Principal >> Edificio E >> Piso 4	AP230	10.0.7.1 (10.0r7a)	NP-ICESI	11	5	161	12	14	clon_ng_ng0	clon_ng_ac0
AP-TRAM-A-21	192.168.14.194	9C5D1240D240	Universidad Icesi >> Campus_Principal >> Casa_SAE	AP230	10.0.7.1 (10.0r7a)	NP-ICESI	11	5	157	12	14	clon_ng_ng0	clon_ng_ac0
AP-TRC-A-18	192.168.14.52	9C5D123EFC40	Universidad Icesi >> Campus_Principal >> Edificio C >> Piso 2	AP230	10.0.8.0 (10.0r8)	NP-ICESI	1	5	161	12	14	Radio2.4Ghz	clon_ng_ac0
AP-E04-P3-F-13	192.168.15.33	C413E287D880	Universidad Icesi >> Campus_Principal >> Edificio M >> Piso 3	AP250	10.0.7.1 (10.0r7a)	NP-ICESI	1	10	161	12	14	clon_ng_ng0	clon_ng_ac0
AP-TRAV-A-21	192.168.14.115	9C5D128EE400	Universidad Icesi >> Campus_Principal >> Edificio E >> Piso 4	AP230	10.0.7.1 (10.0r7a)	NP-ICESI	11	5	157	12	14	clon_ng_ng0	clon_ng_ac0
AP-TRJ-R-19	192.168.14.137	D854A210AE80	Universidad Icesi >> Campus_Principal >> AAS >> Piso 1	AP230	10.0.7.1 (10.0r7a)	NP-ICESI	6	5	165	12	14	clon_ng_ng0	clon_ng_ac0
AP-TRAW-B-16	192.168.14.43	9C5D123FB880	Universidad Icesi >> Campus_Principal >> Edificio E >> Piso 5	AP230	10.0.7.1 (10.0r7a)	NP-ICESI	1	5	149	12	14	clon_ng_ng0	clon_ng_ac0
AP-TRU-A-14	192.168.14.73	9C5D123EED40	Universidad Icesi >> Campus_Principal >> Edificio D >> Piso 3	AP230	10.0.7.1 (10.0r7a)	NP-ICESI	6	8	161	12	14	Radio2.4Ghz	clon_ng_ac0
AP-TRAN-C-13	192.168.14.20	4018B1CF0D40	Universidad Icesi >> Campus_Principal >> Casa_SAE	AP141	6.5.12.0 (6.5r12)	NP-ICESI	6	9	165	15	14	clon_ng_ng0	clon_radio_ng_na0
AP-TRAM-E-17	192.168.14.162	D854A210BF40	Universidad Icesi >> Campus_Principal >> Casa_SAE	AP230	10.0.7.1 (10.0r7a)	NP-ICESI	6	10	165	12	14	clon_ng_ng0	clon_ng_ac0
AP-TRAS-B-07	192.168.14.91	9C5D128EBD80	Universidad Icesi >> Campus_Principal >> Edificio E >> Piso 1	AP230	10.0.7.1 (10.0r7a)	NP-ICESI	11	5	153	12	14	clon_ng_ng0	clon_ng_ac0
AP-TRT-C-06	192.168.14.65	9C5D12408980	Universidad Icesi >> Campus_Principal >> Edificio D >> Piso 2	AP230	10.0.7.1 (10.0r7a)	NP-ICESI	6	5	161	12	14	Radio2.4Ghz	clon_ng_ac0
AP-TRAT-B-08	192.168.14.94	9C5D128E9D40	Universidad Icesi >> Campus_Principal >> Edificio E >> Piso 2	AP230	10.0.7.1 (10.0r7a)	NP-ICESI	1	5	165	12	14	clon_ng_ng0	clon_ng_ac0
AP-TRC-F-17	192.168.14.51	9C5D1240DC00	Universidad Icesi >> Campus_Principal >> Edificio C >> Piso 2	AP230	10.0.8.0 (10.0r8)	NP-ICESI	1	10	153	12	14	Radio2.4Ghz	clon_ng_ac0
AP-TRAN-C-09	192.168.14.22	4018B1CE0A00	Universidad Icesi >> Campus_Principal >> Casa_SAE	AP141	6.5.12.0 (6.5r12)	NP-ICESI	6	5	48	15	14	clon_ng_ng0	clon_radio_ng_na0
AP-E04-P2-H-12	192.168.15.30	C413E2710EC0	Universidad Icesi >> Campus_Principal >> Edificio M >> Piso 2	AP250	10.0.7.1 (10.0r7a)	NP-ICESI	1	10	40	9	14	clon_ng_ng0	clon_ng_ac0
AP-TRY-C-14	192.168.14.169	D854A210B740	Universidad Icesi >> Campus_Principal >> Casa Orejuela >> Piso 1	AP230	10.0.7.1 (10.0r7a)	NP-ICESI	1	10	36	12	14	clon_ng_ng0	clon_ng_ac0
AP-TRAT-C-16	192.168.14.98	9C5D128EED80	Universidad Icesi >> Campus_Principal >> Edificio E >> Piso 2	AP230	10.0.7.1 (10.0r7a)	NP-ICESI	6	5	161	12	14	clon_ng_ng0	clon_ng_ac0
AP-TRAU-A-11	192.168.14.101	9C5D128EE280	Universidad Icesi >> Campus_Principal >> Edificio E >> Piso 3	AP230	10.0.7.1 (10.0r7a)	NP-ICESI	1	5	40	12	14	clon_ng_ng0	clon_ng_ac0
AP-TRAS-C-01	192.168.14.89	9C5D128E9440	Universidad Icesi >> Campus_Principal >> Edificio E >> Piso 1	AP230	10.0.7.1 (10.0r7a)	NP-ICESI	1	5	48	12	14	clon_ng_ng0	clon_ng_ac0
AP-TRAW-B-07	192.168.14.129	9C5D128EBA40	Universidad Icesi >> Campus_Principal >> Edificio E >> Piso 5	AP230	10.0.7.1 (10.0r7a)	NP-ICESI	11	5	161	12	14	clon_ng_ng0	clon_ng_ac0
AP-TRQ-D-02	192.168.14.155	D854A20BEC40	Universidad Icesi >> Campus_Principal >> TRQ >> Piso 2	AP230	10.0.7.1 (10.0r7a)	NP-ICESI	1	10	161	12	14	clon_ng_ng0	clon_ng_ac0
AP-TRAW-B-01	192.168.15.39	9C5D128EE2C0	Universidad Icesi >> Campus_Principal >> Edificio E >> Piso 5	AP230	10.0.7.1 (10.0r7a)	NP-ICESI	6	5	48	19	14	radio_ng_ng0	radio_ng_ac0
AP-TRD-D-20	192.168.14.192	9C5D12407C00	Universidad Icesi >> Campus_Principal >> Edificio C >> Piso 3	AP230	10.0.8.0 (10.0r8)	NP-ICESI	1	5	153	12	14	Radio2.4Ghz	clon_ng_ac0
AP-TRAU-A-21	192.168.14.105	9C5D128ED600	Universidad Icesi >> Campus_Principal >> Edificio E >> Piso 3	AP230	10.0.7.1 (10.0r7a)	NP-ICESI	6	5	44	12	14	clon_ng_ng0	clon_ng_ac0
AP-E01-P1-M-12	192.168.14.212	C413E26B2F80	Universidad Icesi >> Campus_Principal >> Edificio N	AP250	10.0.7.1 (10.0r7a)	NP-ICESI	11	10	149	12	14	clon_ng_ng0	clon_ng_ac0
AP-TRAV-B-21	192.168.14.114	9C5D128E98C0	Universidad Icesi >> Campus_Principal >> Edificio E >> Piso 4	AP230	10.0.7.1 (10.0r7a)	NP-ICESI	1	5	48	12	14	clon_ng_ng0	clon_ng_ac0
AP-TRD-B-19	192.168.14.55	9C5D12409800	Universidad Icesi >> Campus_Principal >> Edificio C >> Piso 3	AP230	10.0.8.0 (10.0r8)	NP-ICESI	11	5	48	12	14	Radio2.4Ghz	clon_ng_ac0
AP-E04-P1-F-11	192.168.15.13	C413E26C4000	Universidad Icesi >> Campus_Principal >> Edificio M >> Piso 1	AP250	10.0.7.1 (10.0r7a)	NP-ICESI	11	10	149	12	14	clon_ng_ng0	clon_ng_ac0
AP-E04-P3-C-12	192.168.15.20	C413E2878FC0	Universidad Icesi >> Campus_Principal >> Edificio M >> Piso 3	AP250	10.0.7.1 (10.0r7a)	NP-ICESI	1	5	44	9	14	clon_ng_ng0	clon_ng_ac0
AP-TRAV-A-15	192.168.14.113	9C5D128EDF40	Universidad Icesi >> Campus_Principal >> Edificio E >> Piso 4	AP230	10.0.7.1 (10.0r7a)	NP-ICESI	6	5	149	12	14	clon_ng_ng0	clon_ng_ac0
AP-E01-P1-C-13	192.168.14.199	C413E2860E00	Universidad Icesi >> Campus_Principal >> Edificio N	AP250	10.0.7.1 (10.0r7a)	NP-ICESI	1	5	157	12	14	clon_ng_ng0	clon_ng_ac0
AP-TRT-A-14	192.168.14.63	9C5D1240A600	Universidad Icesi >> Campus_Principal >> Edificio D >> Piso 2	AP230	10.0.7.1 (10.0r7a)	NP-ICESI	1	5	40	12	14	Radio2.4Ghz	clon_ng_ac0
AP-TRAR-A-08	192.168.14.186	F09CE97725C0	Universidad Icesi >> Campus_Principal >> Casita de Munecas >> Zona De Descanso	AP1130	10.0.7.1 (10.0r7a)	NP-ICESI	6	10	36	12	14	clon_ng_ng0	clon_ng_ac0
AP-TRT-D-17	192.168.14.42	9C5D123FA1C0	Universidad Icesi >> Campus_Principal >> Edificio D >> Piso 2	AP230	10.0.7.1 (10.0r7a)	NP-ICESI	1	5	161	12	14	Radio2.4Ghz	clon_ng_ac0
AP-TRJ-Q-11	192.168.14.173	D854A210B7C0	Universidad Icesi >> Campus_Principal >> AAS >> Piso 2	AP230	10.0.7.1 (10.0r7a)	NP-ICESI	11	10	44	12	14	clon_ng_ng0	clon_ng_ac0
AP-TRAW-A-11	192.168.14.121	9C5D128EDA80	Universidad Icesi >> Campus_Principal >> Edificio E >> Piso 5	AP230	10.0.7.1 (10.0r7a)	NP-ICESI	1	5	165	12	14	clon_ng_ng0	clon_ng_ac0
AP-TRAP-D-22	192.168.14.27	9C5D12406C80	Universidad Icesi >> Campus_Principal >> Casa Rocha >> Piso 1	AP230	10.0.7.1 (10.0r7a)	NP-ICESI	6	10	40	12	14	clon_ng_ng0	clon_ng_ac0
AP-TRC-B-22	192.168.14.50	9C5D126EE3C0	Universidad Icesi >> Campus_Principal >> Edificio C >> Piso 2	AP230	10.0.8.0 (10.0r8)	NP-ICESI	11	6	36	12	14	Radio2.4Ghz	clon_ng_ac0
AP-E01-P1-A-23	192.168.14.213	C413E26B5000	Universidad Icesi >> Campus_Principal >> Edificio N	AP250	10.0.7.1 (10.0r7a)	NP-ICESI	11	10	40	9	14	clon_ng_ng0	clon_ng_ac0
AP-TRJ-S-06	192.168.14.134	D854A210C400	Universidad Icesi >> Campus_Principal >> AAS >> Piso 1	AP230	10.0.7.1 (10.0r7a)	NP-ICESI	11	10	161	12	14	clon_ng_ng0	clon_ng_ac0
AP-E01-P1-H-17	192.168.14.207	C413E285EA40	Universidad Icesi >> Campus_Principal >> Edificio N	AP250	10.0.7.1 (10.0r7a)	NP-ICESI-CHROMECAST	6	5	40	9	1	clon_ng_ng0	clon_ng_ac0
AP-E04-P1-D-03	192.168.15.27	C413E288AC80	Universidad Icesi >> Campus_Principal >> Edificio M >> Piso 1	AP250	10.0.7.1 (10.0r7a)	NP-ICESI	N/A	Down	N/A	Down	14	clon_ng_ng0	clon_ng_ac0
AP-TRI-O-02	192.168.14.143	D854A210CE40	Universidad Icesi >> Campus_Principal >> AAN >> Piso 1	AP230	10.0.7.1 (10.0r7a)	NP-ICESI	11	10	165	12	14	clon_ng_ng0	clon_ng_ac0
AP-TRAN-B-18	192.168.14.14	E01C41599F40	Universidad Icesi >> Campus_Principal >> Casa_SAE	AP170	6.5.6.0 (6.5r6)	NP-ICESI	1	11	153	20	14	radio_ng_ng0	radio_ng_na0
AP-E04-P1-H-12	192.168.15.29	C413E26F3680	Universidad Icesi >> Campus_Principal >> Edificio M >> Piso 1	AP250	10.0.7.1 (10.0r7a)	NP-ICESI	N/A	Down	165	12	14	clon_ng_ng0	clon_ng_ac0
AP-TRV-E-21	192.168.14.78	9C5D1240A0C0	Universidad Icesi >> Campus_Principal >> Edificio D >> Piso 4	AP230	10.0.7.1 (10.0r7a)	NP-ICESI	11	8	149	12	14	Radio2.4Ghz	clon_ng_ac0
AP-TRJ-T-13	192.168.14.174	D854A210BB40	Universidad Icesi >> Campus_Principal >> AAS >> Piso 1	AP230	10.0.7.1 (10.0r7a)	NP-ICESI	11	10	36	12	14	clon_ng_ng0	clon_ng_ac0
AP-TRAT-B-03	192.168.14.99	9C5D128EE300	Universidad Icesi >> Campus_Principal >> Edificio E >> Piso 2	AP230	10.0.7.1 (10.0r7a)	NP-ICESI	1	10	165	12	14	clon_ng_ng0	clon_ng_ac0
AP-TRQ-C-07	192.168.14.158	D854A210B900	Universidad Icesi >> Campus_Principal >> TRQ >> Piso 1	AP230	10.0.7.1 (10.0r7a)	NP-ICESI	6	10	157	12	14	clon_ng_ng0	clon_ng_ac0
AP-TRS-G-02	192.168.14.37	9C5D123FC540	Universidad Icesi >> Campus_Principal >> Edificio D >> Piso 1	AP230	10.0.7.1 (10.0r7a)	NP-ICESI	1	10	157	12	14	Radio2.4Ghz	clon_ng_ac0
AP-TRAM-C-13	192.168.14.131	9C5D126EF400	Universidad Icesi >> Campus_Principal >> Casa_SAE	AP230	10.0.7.1 (10.0r7a)	NP-ICESI	1	10	36	12	14	clon_ng_ng0	clon_ng_ac0
AP-E01-P1-E-02	192.168.14.200	C413E285E640	Universidad Icesi >> Campus_Principal >> Edificio N	AP250	10.0.7.1 (10.0r7a)	NP-ICESI	1	8	36	9	14	clon_ng_ng0	clon_ng_ac0
AP-TRAS-A-09	192.168.14.86	9C5D128EAB80	Universidad Icesi >> Campus_Principal >> Edificio E >> Piso 1	AP230	10.0.7.1 (10.0r7a)	NP-ICESI	6	5	161	12	14	clon_ng_ng0	clon_ng_ac0
AP-E04-P4-A-22	192.168.15.22	C413E2877880	Universidad Icesi >> Campus_Principal >> Edificio M >> Piso 4	AP250	10.0.7.1 (10.0r7a)	NP-ICESI	1	8	149	12	14	clon_ng_ng0	clon_ng_ac0
AP-E04-P3-B-05	192.168.15.18	C413E287ACC0	Universidad Icesi >> Campus_Principal >> Edificio M >> Piso 3	AP250	10.0.7.1 (10.0r7a)	NP-LABHCI	11	5	40	9	1	clon_ng_ng0	clon_ng_ac0
AP-TRC-C-21	192.168.14.188	9C5D1240F000	Universidad Icesi >> Campus_Principal >> Edificio C >> Piso 2	AP230	10.0.8.0 (10.0r8)	NP-ICESI	11	7	48	12	14	Radio2.4Ghz	clon_ng_ac0
AP-TRC-C-06	192.168.14.38	9C5D123FB740	Universidad Icesi >> Campus_Principal >> Edificio C >> Piso 2	AP230	10.0.8.0 (10.0r8)	NP-ICESI	6	5	44	12	14	Radio2.4Ghz	clon_ng_ac0
CASA_SAN_JOAQUIN_1	192.168.241.245	9C5D1240CA40	Universidad Icesi >> Casa San Joaquin >> Piso 1	AP230	10.0.7.1 (10.0r7a)	NP-JOAQUIN	1	10	165	12	1	clon_ng_ng0	clon_ng_ac0
CASA_SAN_JOAQUIN_3	192.168.241.247	9C5D12407540	Universidad Icesi >> Casa San Joaquin >> Piso 2	AP230	10.0.7.1 (10.0r7a)	NP-JOAQUIN	6	10	40	12	1	clon_ng_ng0	clon_ng_ac0
AP-E04-P4-B-06	192.168.15.24	C413E287D780	Universidad Icesi >> Campus_Principal >> Edificio M >> Piso 4	AP250	10.0.7.1 (10.0r7a)	NP-ICESI	11	10	40	9	14	clon_ng_ng0	clon_ng_ac0
AP-TRAM-E-14	192.168.14.40	9C5D123FB0C0	Universidad Icesi >> Campus_Principal >> Casa_SAE	AP230	10.0.7.1 (10.0r7a)	NP-ICESI	6	10	44	12	14	clon_ng_ng0	clon_ng_ac0
AP-TRAM-E-07	192.168.14.23	C8665D5C7C40	Universidad Icesi >> Campus_Principal >> Casa_SAE	AP122X	10.0.7.1 (10.0r7a)	NP-ICESI	6	10	165	12	14	clon_ng_ng0	clon_ng_ac0
AP-TRAT-A-19	192.168.14.97	9C5D128EC3C0	Universidad Icesi >> Campus_Principal >> Edificio E >> Piso 2	AP230	10.0.7.1 (10.0r7a)	NP-ICESI	11	5	149	12	14	clon_ng_ng0	clon_ng_ac0
AP-TRS-B-13	192.168.14.34	9C5D12405F00	Universidad Icesi >> Campus_Principal >> Edificio D >> Piso 1	AP230	10.0.7.1 (10.0r7a)	NP-ICESI	6	5	149	12	14	Radio2.4Ghz	clon_ng_ac0
AP-TRAT-B-11	192.168.14.96	9C5D128EDE40	Universidad Icesi >> Campus_Principal >> Edificio E >> Piso 2	AP230	10.0.7.1 (10.0r7a)	NP-ICESI	6	5	40	12	14	clon_ng_ng0	clon_ng_ac0
AP-TRAP-D-21	192.168.14.28	9C5D123FEF80	Universidad Icesi >> Campus_Principal >> Casa Rocha >> Piso 1	AP230	10.0.7.1 (10.0r7a)	NP-ICESI	11	10	165	12	14	clon_ng_ng0	clon_ng_ac0
AP-E01-P1-H-09	192.168.14.204	C413E26CC940	Universidad Icesi >> Campus_Principal >> Edificio N	AP250	10.0.7.1 (10.0r7a)	NP-ICESI-CHROMECAST	11	5	165	12	1	clon_ng_ng0	clon_ng_ac0
AP-E04-P1-C-03	192.168.15.11	C413E26CA6C0	Universidad Icesi >> Campus_Principal >> Edificio M >> Piso 1	AP250	10.0.7.1 (10.0r7a)	NP-ICESI	6	6	153	12	14	clon_ng_ng0	clon_ng_ac0
AP-TRB-E-23	192.168.14.126	9C5D128ED540	Universidad Icesi >> Campus_Principal >> Edificio C >> Piso 1	AP230	10.0.8.0 (10.0r8)	NP-ICESI	1	10	44	19	14	Radio2.4Ghz	radio_ng_ac0
AP-TRE-B-21	192.168.14.180	F09CE97950C0	Universidad Icesi >> Campus_Principal >> Bienestar >> Piso 1	AP1130	10.0.7.1 (10.0r7a)	NP-ICESI	11	14	36	19	14	radio_ng_ng0	radio_ng_ac0
AP-TRAN-C-15	192.168.14.33	9C5D124053C0	Universidad Icesi >> Campus_Principal >> Casa_SAE	AP230	10.0.7.1 (10.0r7a)	NP-ICESI	11	10	44	12	14	clon_ng_ng0	clon_ng_ac0
AP-TRT-D-21	192.168.14.68	9C5D123F2100	Universidad Icesi >> Campus_Principal >> Edificio D >> Piso 2	AP230	10.0.7.1 (10.0r7a)	NP-ICESI	11	9	48	12	14	Radio2.4Ghz	clon_ng_ac0
AP-TRB-K-10	192.168.14.183	D854A28B3300	Universidad Icesi >> Campus_Principal >> Edificio C >> Piso 1	AP230	10.0.8.0 (10.0r8)	NP-ICESI	11	5	40	12	14	Radio2.4Ghz	clon_ng_ac0
AP-TRB-M-19	192.168.14.48	D854A28B4F00	Universidad Icesi >> Campus_Principal >> Edificio C >> Piso 1	AP230	10.0.8.0 (10.0r8)	NP-ICESI	6	5	161	12	14	Radio2.4Ghz	clon_ng_ac0
AP-SALA-CONSEJO	192.168.14.130	9C5D1240AA80	Universidad Icesi >> Campus_Principal >> AAN >> Piso 2	AP230	10.0.7.1 (10.0r7a)	NP-SALA-CONSEJO	11	10	36	12	1	clon_ng_ng0	clon_ng_ac0
AP-TRQ-B-24	192.168.14.156	D854A210BFC0	Universidad Icesi >> Campus_Principal >> TRQ >> Piso 2	AP230	10.0.7.1 (10.0r7a)	NP-ICESI	6	5	40	12	14	clon_ng_ng0	clon_ng_ac0
AP-TRAS-A-14	192.168.14.88	9C5D128EB0C0	Universidad Icesi >> Campus_Principal >> Edificio E >> Piso 1	AP230	10.0.7.1 (10.0r7a)	NP-ICESI	11	5	153	12	14	clon_ng_ng0	clon_ng_ac0
AP-TRAN-B-14	192.168.14.25	4018B1CDE840	Universidad Icesi >> Campus_Principal >> Casa_SAE	AP141	6.5.12.0 (6.5r12)	NP-ICESI	6	10	157	15	14	clon_ng_ng0	clon_radio_ng_na0
AP-E04-P3-G-09	192.168.15.32	C413E288AE00	Universidad Icesi >> Campus_Principal >> Edificio M >> Piso 3	AP250	10.0.7.1 (10.0r7a)	NP-ICESI	11	10	165	12	14	clon_ng_ng0	clon_ng_ac0
AP-E04-P2-C-03	192.168.15.15	C413E26CAB40	Universidad Icesi >> Campus_Principal >> Edificio M >> Piso 2	AP250	10.0.7.1 (10.0r7a)	NP-LIASON	N/A	Down	36	9	1	clon_ng_ng0	clon_ng_ac0
AP-TRJ-G-01	192.168.14.136	D854A210AE40	Universidad Icesi >> Campus_Principal >> AAS >> Piso 1	AP230	10.0.7.1 (10.0r7a)	NP-ICESI	6	6	40	12	14	clon_ng_ng0	clon_ng_ac0
AP-TRJ-F-23	192.168.14.138	D854A210AF00	Universidad Icesi >> Campus_Principal >> TRX >> Piso 2	AP230	10.0.7.1 (10.0r7a)	NP-ICESI	11	6	161	12	14	clon_ng_ng0	clon_ng_ac0
AP-TRS-D-10	192.168.14.62	9C5D1240AE80	Universidad Icesi >> Campus_Principal >> Edificio D >> Piso 1	AP230	10.0.7.1 (10.0r7a)	NP-ICESI	11	8	44	12	14	Radio2.4Ghz	clon_ng_ac0
AP-TRE-A-09	192.168.14.167	D854A210B480	Universidad Icesi >> Campus_Principal >> Bienestar >> Piso 2	AP230	10.0.7.1 (10.0r7a)	NP-ICESI	1	10	44	12	14	clon_ng_ng0	clon_ng_ac0
AP-TRU-B-05	192.168.14.41	9C5D123FB980	Universidad Icesi >> Campus_Principal >> Edificio D >> Piso 3	AP230	10.0.7.1 (10.0r7a)	NP-ICESI	6	5	153	12	14	Radio2.4Ghz	clon_ng_ac0
AP-TRV-D-18	192.168.14.36	9C5D123FB6C0	Universidad Icesi >> Campus_Principal >> Edificio D >> Piso 4	AP230	10.0.7.1 (10.0r7a)	NP-ICESI	6	8	36	5	14	Radio2.4Ghz	clon_ng_ac0
AP-TRAU-A-15	192.168.14.103	9C5D128EE3C0	Universidad Icesi >> Campus_Principal >> Edificio E >> Piso 3	AP230	10.0.7.1 (10.0r7a)	NP-ICESI	6	5	165	12	14	clon_ng_ng0	clon_ng_ac0
AP-TRJ-C-32	192.168.14.139	D854A210D880	Universidad Icesi >> Campus_Principal >> AAS >> Piso 2	AP230	10.0.7.1 (10.0r7a)	NP-ICESI	6	17	40	12	14	radio_ng_ng0	clon_ng_ac0
AP-TRAM-A-11	192.168.14.12	E01C4158FCC0	Universidad Icesi >> Campus_Principal >> Casa_SAE	AP170	6.5.12.0 (6.5r12)	NP-ICESI	11	10	157	1	14	clon_ng_ng0	radio_ng_na0
AP-TRD-E-09	192.168.14.154	D854A20F1040	Universidad Icesi >> Campus_Principal >> Edificio C >> Piso 3	AP230	10.0.8.0 (10.0r8)	NP-ICESI	1	5	40	12	14	Radio2.4Ghz	clon_ng_ac0
AP-TRV-B-14	192.168.14.29	9C5D12406D40	Universidad Icesi >> Campus_Principal >> Edificio D >> Piso 4	AP230	10.0.7.1 (10.0r7a)	NP-ICESI	11	10	44	12	14	Radio2.4Ghz	clon_ng_ac0
AP-E04-P4-E-07	192.168.15.38	C413E2882640	Universidad Icesi >> Campus_Principal >> Edificio M >> Piso 4	AP250	10.0.7.1 (10.0r7a)	NP-ICESI	6	10	36	9	14	clon_ng_ng0	clon_ng_ac0
AP-TRI-E-20	192.168.14.148	D854A20B6C40	Universidad Icesi >> Campus_Principal >> AAN >> Piso 2	AP230	10.0.7.1 (10.0r7a)	NP-ICESI	1	10	161	12	14	clon_ng_ng0	clon_ng_ac0
AP-TRT-B-15	192.168.14.35	9C5D12404140	Universidad Icesi >> Campus_Principal >> Edificio D >> Piso 2	AP230	10.0.7.1 (10.0r7a)	NP-ICESI	11	5	36	12	14	Radio2.4Ghz	clon_ng_ac0
AP-TRAT-A-17	192.168.14.95	9C5D128EE480	Universidad Icesi >> Campus_Principal >> Edificio E >> Piso 2	AP230	10.0.7.1 (10.0r7a)	NP-ICESI	11	5	157	12	14	clon_ng_ng0	clon_ng_ac0
AP-TRAW-A-21	192.168.14.125	9C5D128ECF40	Universidad Icesi >> Campus_Principal >> Edificio E >> Piso 5	AP230	10.0.7.1 (10.0r7a)	NP-ICESI	6	5	36	12	14	clon_ng_ng0	clon_ng_ac0
AP-TRB-J-04	192.168.14.185	D854A28B4340	Universidad Icesi >> Campus_Principal >> Edificio C >> Piso 1	AP230	10.0.8.0 (10.0r8)	NP-STARTUP-CAFE	1	10	157	12	1	Radio2.4Ghz	clon_ng_ac0
AP-E04-P1-E-06	192.168.15.12	C413E26CB3C0	Universidad Icesi >> Campus_Principal >> Edificio M >> Piso 1	AP250	10.0.7.1 (10.0r7a)	NP-ICESI	11	10	40	9	14	clon_ng_ng0	clon_ng_ac0
AP-TRJ-S-07	192.168.14.133	D854A210C2C0	Universidad Icesi >> Campus_Principal >> AAS >> Piso 1	AP230	10.0.7.1 (10.0r7a)	NP-ICESI	6	10	48	12	14	clon_ng_ng0	clon_ng_ac0
AP-TRI-U-05	192.168.14.172	D854A210B400	Universidad Icesi >> Campus_Principal >> AAN >> Piso 1	AP230	10.0.7.1 (10.0r7a)	NP-ICESI	6	10	36	12	14	clon_ng_ng0	clon_ng_ac0
AP-TRAN-B-19	192.168.14.190	9C5D1240E180	Universidad Icesi >> Campus_Principal >> Casa_SAE	AP230	10.0.7.1 (10.0r7a)	NP-ICESI	1	5	40	12	14	clon_ng_ng0	clon_ng_ac0
AP-E01-P1-B-11	192.168.14.211	C413E26C98C0	Universidad Icesi >> Campus_Principal >> Edificio N	AP250	10.0.7.1 (10.0r7a)	NP-ICESI	6	10	165	12	14	clon_ng_ng0	clon_ng_ac0
AP-TRU-C-16	192.168.14.71	9C5D123F28C0	Universidad Icesi >> Campus_Principal >> Edificio D >> Piso 3	AP230	10.0.7.1 (10.0r7a)	NP-ICESI	1	5	157	12	14	Radio2.4Ghz	clon_ng_ac0
AP-E04-P3-C-03	192.168.15.19	C413E287D100	Universidad Icesi >> Campus_Principal >> Edificio M >> Piso 3	AP250	10.0.7.1 (10.0r7a)	NP-ICESI	6	10	161	12	14	clon_ng_ng0	clon_ng_ac0
AP-TRE-D-04	192.168.14.165	D854A210B940	Universidad Icesi >> Campus_Principal >> Bienestar >> Piso 2	AP230	10.0.7.1 (10.0r7a)	NP-ICESI	6	10	165	12	14	clon_ng_ng0	clon_ng_ac0
AP-TRAM-E-19	192.168.14.45	9C5D123FC300	Universidad Icesi >> Campus_Principal >> Casa_SAE	AP230	10.0.7.1 (10.0r7a)	NP-ICESI	11	10	161	12	14	clon_ng_ng0	clon_ng_ac0
AP-TRX-E-03	192.168.14.152	D854A20C0100	Universidad Icesi >> Campus_Principal >> TRX >> Piso 1	AP230	10.0.7.1 (10.0r7a)	NP-ICESI	6	10	165	12	14	clon_ng_ng0	clon_ng_ac0
AP-TRB-B-09	192.168.14.49	D854A28B3380	Universidad Icesi >> Campus_Principal >> Edificio C >> Piso 1	AP230	10.0.8.0 (10.0r8)	NP-ICESI	11	10	165	12	14	Radio2.4Ghz	clon_ng_ac0
AP-TRAU-B-17	192.168.14.102	9C5D128EEE00	Universidad Icesi >> Campus_Principal >> Edificio E >> Piso 3	AP230	10.0.7.1 (10.0r7a)	NP-ICESI	11	5	161	12	14	clon_ng_ng0	clon_ng_ac0
AP-TRX-C-12	192.168.14.176	F09CE9795180	Universidad Icesi >> Campus_Principal >> TRX >> Piso 1	AP1130	10.0.7.1 (10.0r7a)	NP-ICESI	11	5	165	12	14	clon_ng_ng0	clon_ng_ac0
AP-TRQ-D-03	192.168.14.157	D854A210C180	Universidad Icesi >> Campus_Principal >> TRQ >> Piso 1	AP230	10.0.7.1 (10.0r7a)	NP-ICESI	11	10	36	12	14	clon_ng_ng0	clon_ng_ac0
AP-TRAN-A-09	192.168.14.195	9C5D1240EC80	Universidad Icesi >> Campus_Principal >> Casa_SAE	AP230	10.0.7.1 (10.0r7a)	NP-ICESI	11	10	161	12	14	clon_ng_ng0	clon_ng_ac0
AP-TRO-E-22	192.168.240.246	C413E287C940	Universidad Icesi >> Consultorio Juridico >> Piso 2	AP250	8.0.1.0 (8.0r1)	NP_ICESI_CONSULTORIO_JURIDICO	6	10	157	12	1	clon_ng_ng0	clon_ng_ac0
AP-E04-P3-F-05	192.168.15.37	C413E287F800	Universidad Icesi >> Campus_Principal >> Edificio M >> Piso 3	AP250	10.0.7.1 (10.0r7a)	NP-ICESI	6	10	157	12	14	clon_ng_ng0	clon_ng_ac0
AP-TRY-D-20	192.168.14.46	D854A28B3A00	Universidad Icesi >> Campus_Principal >> Casa Orejuela >> Piso 1	AP230	10.0.7.1 (10.0r7a)	NP-ICESI	6	10	161	12	14	clon_ng_ng0	clon_ng_ac0
AP-TRAW-C-05	192.168.14.128	9C5D128EB100	Universidad Icesi >> Campus_Principal >> Edificio E >> Piso 5	AP230	10.0.7.1 (10.0r7a)	NP-ICESI	11	5	157	12	14	clon_ng_ng0	clon_ng_ac0
AP-TRI-O-04	192.168.14.145	D854A210D540	Universidad Icesi >> Campus_Principal >> AAN >> Piso 1	AP230	10.0.7.1 (10.0r7a)	NP-ICESI	6	18	44	19	14	radio_ng_ng0	radio_ng_ac0
AP-TRAV-A-08	192.168.14.110	9C5D128EE640	Universidad Icesi >> Campus_Principal >> Edificio E >> Piso 4	AP230	10.0.7.1 (10.0r7a)	NP-ICESI	1	5	44	12	14	clon_ng_ng0	clon_ng_ac0
AP-TRAQ-A-01	192.168.14.83	F09CE9772C00	Universidad Icesi >> Campus_Principal >> TRAQ >> The Snack	AP1130	10.0.7.1 (10.0r7a)	NP-ICESI	11	10	40	12	14	clon_ng_ng0	clon_ng_ac0
AP-TRAN-C-14	192.168.14.193	9C5D1240EE40	Universidad Icesi >> Campus_Principal >> Casa_SAE	AP230	10.0.7.1 (10.0r7a)	NP-ICESI	11	5	36	12	14	clon_ng_ng0	clon_ng_ac0
AP-TRAU-C-09	192.168.14.108	9C5D128ED140	Universidad Icesi >> Campus_Principal >> Edificio E >> Piso 3	AP230	10.0.7.1 (10.0r7a)	NP-ICESI	1	6	153	12	14	clon_ng_ng0	clon_ng_ac0
AP-TRAV-B-16	192.168.14.112	9C5D128ED840	Universidad Icesi >> Campus_Principal >> Edificio E >> Piso 4	AP230	10.0.7.1 (10.0r7a)	NP-ICESI	6	5	36	12	14	clon_ng_ng0	clon_ng_ac0
AP-TRAN-C-16	192.168.14.13	08EA448F4000	Universidad Icesi >> Campus_Principal >> Casa_SAE	AP170	6.5.12.0 (6.5r12)	NP-ICESI	1	5	161	15	14	clon_ng_ng0	clon_radio_ng_na0
AP-TRAW-B-19	192.168.14.124	9C5D128EE8C0	Universidad Icesi >> Campus_Principal >> Edificio E >> Piso 5	AP230	10.0.7.1 (10.0r7a)	NP-ICESI	11	5	40	12	14	clon_ng_ng0	clon_ng_ac0
AP-TRD-M-09	192.168.14.191	9C5D125AF200	Universidad Icesi >> Campus_Principal >> Edificio C >> Piso 3	AP230	10.0.8.0 (10.0r8)	NP-ICESI	1	10	161	12	14	Radio2.4Ghz	clon_ng_ac0
AP-TRAM-D-22	192.168.14.182	D854A2D19B00	Universidad Icesi >> Campus_Principal >> Casa_SAE	AP230	10.0.7.1 (10.0r7a)	NP-ICESI	11	10	161	12	14	clon_ng_ng0	clon_ng_ac0
AP-TRI-E-03	192.168.14.146	D854A20F2A00	Universidad Icesi >> Campus_Principal >> AAN >> Piso 2	AP230	10.0.7.1 (10.0r7a)	NP-ICESI	1	10	161	12	14	clon_ng_ng0	clon_ng_ac0
AP-TRV-F-12	192.168.14.82	9C5D1240A300	Universidad Icesi >> Campus_Principal >> Edificio D >> Piso 4	AP230	10.0.7.1 (10.0r7a)	NP-ICESI	6	8	149	12	14	Radio2.4Ghz	clon_ng_ac0
AP-E04-P4-E-20	192.168.15.34	C413E26F2000	Universidad Icesi >> Campus_Principal >> Edificio M >> Piso 4	AP250	10.0.7.1 (10.0r7a)	NP-ICESI	1	10	36	9	14	clon_ng_ng0	clon_ng_ac0
AP-E01-P1-G-09	192.168.14.202	C413E2861780	Universidad Icesi >> Campus_Principal >> Edificio N	AP250	10.0.7.1 (10.0r7a)	NP-ICESI	11	5	153	12	14	clon_ng_ng0	clon_ng_ac0
AP-E04-P4-C-20	192.168.15.25	C413E2881F80	Universidad Icesi >> Campus_Principal >> Edificio M >> Piso 4	AP250	10.0.7.1 (10.0r7a)	NP-ICESI	11	10	161	12	14	clon_ng_ng0	clon_ng_ac0
AP-TRD-J-08	192.168.14.54	9C5D1240DB00	Universidad Icesi >> Campus_Principal >> Edificio C >> Piso 3	AP230	10.0.8.0 (10.0r8)	NP-ICESI	11	7	44	12	14	Radio2.4Ghz	clon_ng_ac0
AP-TRAU-B-19	192.168.14.123	9C5D128E6C80	Universidad Icesi >> Campus_Principal >> Edificio E >> Piso 3	AP230	10.0.7.1 (10.0r7a)	NP-ICESI	6	5	157	12	14	clon_ng_ng0	clon_ng_ac0
AP-TRAU-C-04	192.168.14.106	9C5D128E9800	Universidad Icesi >> Campus_Principal >> Edificio E >> Piso 3	AP230	10.0.7.1 (10.0r7a)	NP-ICESI	11	5	149	12	14	clon_ng_ng0	clon_ng_ac0
AP-TRS-B-06	192.168.14.58	9C5D1240A940	Universidad Icesi >> Campus_Principal >> Edificio D >> Piso 1	AP230	10.0.7.1 (10.0r7a)	NP-ICESI	6	5	157	12	14	Radio2.4Ghz	clon_ng_ac0
AP-TRAU-B-06	192.168.14.100	9C5D128EE440	Universidad Icesi >> Campus_Principal >> Edificio E >> Piso 3	AP230	10.0.7.1 (10.0r7a)	NP-ICESI	6	5	153	12	14	clon_ng_ng0	clon_ng_ac0
AP-E01-P1-E-17	192.168.14.198	C413E2865140	Universidad Icesi >> Campus_Principal >> Edificio N	AP250	10.0.7.1 (10.0r7a)	NP-ICESI	11	5	48	9	14	clon_ng_ng0	clon_ng_ac0
AP-TRT-D-18	192.168.14.64	9C5D1240A6C0	Universidad Icesi >> Campus_Principal >> Edificio D >> Piso 2	AP230	10.0.7.1 (10.0r7a)	NP-ICESI	1	8	153	12	14	Radio2.4Ghz	clon_ng_ac0
CONSULTORIO_JURIDICO_1	192.168.240.245	9C5D12409D00	Universidad Icesi >> Consultorio Juridico >> Piso 2	AP230	6.5.8.2 (6.5r8b)	NP_ICESI_CONSULTORIO_JURIDICO	1	10	153	12	1	clon_ng_ng0	clon_ng_ac0
AP-TRAW-C-02	192.168.14.104	9C5D128EC280	Universidad Icesi >> Campus_Principal >> Edificio E >> Piso 5	AP230	10.0.7.1 (10.0r7a)	NP-ICESI	6	5	161	12	14	clon_ng_ng0	clon_ng_ac0
AP-TRS-E-06	192.168.14.59	9C5D1240AAC0	Universidad Icesi >> Campus_Principal >> Edificio D >> Piso 1	AP230	10.0.7.1 (10.0r7a)	NP-ICESI	11	10	44	12	14	Radio2.4Ghz	clon_ng_ac0
AP-E01-P1-D-21	192.168.14.201	C413E23A4BC0	Universidad Icesi >> Campus_Principal >> Edificio N	AP250	10.0.7.1 (10.0r7a)	NP-ICESI	6	6	44	9	14	clon_ng_ng0	clon_ng_ac0
AP-E04-P1-C-17	192.168.15.26	C413E2884900	Universidad Icesi >> Campus_Principal >> Edificio M >> Piso 1	AP250	10.0.7.1 (10.0r7a)	NP-ICESI	11	10	36	9	14	clon_ng_ng0	clon_ng_ac0
AP-TRI-O-16	192.168.14.31	9C5D12404C80	Universidad Icesi >> Campus_Principal >> AAN >> Piso 2	AP230	10.0.8.0 (10.0r8)	NP-ICESI	1	18	40	19	14	radio_ng_ng0	radio_ng_ac0
AP-TRU-C-08	192.168.14.161	D854A210CFC0	Universidad Icesi >> Campus_Principal >> Edificio D >> Piso 3	AP230	10.0.7.1 (10.0r7a)	NP-ICESI	11	5	149	12	14	Radio2.4Ghz	clon_ng_ac0
AP-TRI-E-07	192.168.14.147	D854A20BCE40	Universidad Icesi >> Campus_Principal >> AAN >> Piso 2	AP230	10.0.7.1 (10.0r7a)	NP-ICESI	11	10	165	12	14	clon_ng_ng0	clon_ng_ac0
AP-TRS-G-03	192.168.14.177	F09CE9795040	Universidad Icesi >> Campus_Principal >> Edificio D >> Piso 1	AP1130	10.0.7.1 (10.0r7a)	NP-ICESI	6	9	36	12	14	Radio2.4Ghz	clon_ng_ac0
AP-TRD-D-24	192.168.14.56	9C5D1240A7C0	Universidad Icesi >> Campus_Principal >> Edificio C >> Piso 3	AP230	10.0.8.0 (10.0r8)	NP-ICESI	6	10	149	12	14	Radio2.4Ghz	clon_ng_ac0
AP-TRB-L-11	192.168.14.184	D854A28B3080	Universidad Icesi >> Campus_Principal >> Edificio C >> Piso 1	AP230	10.0.8.0 (10.0r8)	NP-STARTUP-CAFE	11	5	48	12	1	Radio2.4Ghz	clon_ng_ac0
AP-TRX-D-20	192.168.14.153	D854A20BD280	Universidad Icesi >> Campus_Principal >> TRX >> Piso 1	AP230	10.0.7.1 (10.0r7a)	NP-ICESI	11	10	157	12	14	clon_ng_ng0	clon_ng_ac0
AP-TRAM-A-19	192.168.14.17	4018B1CE1E00	Universidad Icesi >> Campus_Principal >> Casa_SAE	AP141	6.5.12.0 (6.5r12)	NP-ICESI	6	5	149	20	14	clon_ng_ng0	radio_ng_na0
AP-TRAU-C-13	192.168.14.109	9C5D128EE240	Universidad Icesi >> Campus_Principal >> Edificio E >> Piso 3	AP230	10.0.7.1 (10.0r7a)	NP-ICESI	6	5	48	12	14	clon_ng_ng0	clon_ng_ac0
AP-TRJ-C-30	192.168.14.142	D854A216A800	Universidad Icesi >> Campus_Principal >> AAS >> Piso 2	AP230	10.0.7.1 (10.0r7a)	NP-ICESI	1	7	161	12	14	clon_ng_ng0	clon_ng_ac0
AP-TRV-C-06	192.168.14.77	9C5D1240A340	Universidad Icesi >> Campus_Principal >> Edificio D >> Piso 4	AP230	10.0.7.1 (10.0r7a)	NP-ICESI	1	10	165	12	14	Radio2.4Ghz	clon_ng_ac0
AP-TRAW-A-15	192.168.14.122	9C5D128EEE40	Universidad Icesi >> Campus_Principal >> Edificio E >> Piso 5	AP230	10.0.7.1 (10.0r7a)	NP-ICESI	11	5	153	12	14	clon_ng_ng0	clon_ng_ac0
AP-E01-P1-K-03	192.168.14.209	C413E2863580	Universidad Icesi >> Campus_Principal >> Edificio N	AP250	10.0.7.1 (10.0r7a)	NP-ICESI	1	9	161	12	14	clon_ng_ng0	clon_ng_ac0
AP-E04-P2-A-23	192.168.15.14	C413E26C4080	Universidad Icesi >> Campus_Principal >> Edificio M >> Piso 2	AP250	10.0.7.1 (10.0r7a)	NP-LIASON	11	4	157	12	1	clon_ng_ng0	clon_ng_ac0
AP-TRI-R-24	192.168.14.144	D854A210D300	Universidad Icesi >> Campus_Principal >> AAN >> Piso 1	AP230	10.0.7.1 (10.0r7a)	NP-ICESI	6	10	40	12	14	clon_ng_ng0	clon_ng_ac0
AP-E04-P1-A-19	192.168.15.10	C413E26CA780	Universidad Icesi >> Campus_Principal >> Edificio M >> Piso 1	AP250	10.0.7.1 (10.0r7a)	NP-LABREDES	1	10	48	9	1	clon_ng_ng0	clon_ng_ac0
AP-TRJ-W-20	192.168.14.149	D854A20B89C0	Universidad Icesi >> Campus_Principal >> AAN >> Piso 2	AP230	10.0.7.1 (10.0r7a)	NP-ICESI	6	20	153	20	14	radio_ng_ng0	radio_ng_ac0
AP-TRU-D-24	192.168.14.70	9C5D123E4B80	Universidad Icesi >> Campus_Principal >> Edificio D >> Piso 3	AP230	10.0.7.1 (10.0r7a)	NP-ICESI	1	5	36	12	14	Radio2.4Ghz	clon_ng_ac0
AP-TRAM-A-13	192.168.14.19	4018B1CDF700	Universidad Icesi >> Campus_Principal >> Casa_SAE	AP141	6.5.12.0 (6.5r12)	NP-ICESI	1	10	48	20	14	clon_ng_ng0	radio_ng_na0
AP-TRAU-B-01	192.168.14.107	9C5D128E99C0	Universidad Icesi >> Campus_Principal >> Edificio E >> Piso 3	AP230	10.0.7.1 (10.0r7a)	NP-ICESI	11	5	161	12	14	clon_ng_ng0	clon_ng_ac0
AP-TRAV-A-24	192.168.14.117	9C5D128EE380	Universidad Icesi >> Campus_Principal >> Edificio E >> Piso 4	AP230	10.0.7.1 (10.0r7a)	NP-ICESI	1	5	40	12	14	clon_ng_ng0	clon_ng_ac0
AP-TRD-O-20	192.168.14.39	9C5D123FB780	Universidad Icesi >> Campus_Principal >> Edificio C >> Piso 3	AP230	10.0.8.0 (10.0r8)	NP-ICESI	11	5	165	12	14	Radio2.4Ghz	clon_ng_ac0
AP-TRJ-C-29	192.168.14.141	D854A210B080	Universidad Icesi >> Campus_Principal >> AAS >> Piso 2	AP230	10.0.7.1 (10.0r7a)	NP-ICESI	6	10	165	12	14	clon_ng_ng0	clon_ng_ac0
AP-TRB-G-01	192.168.14.47	D854A28BCF80	Universidad Icesi >> Campus_Principal >> Edificio C >> Piso 1	AP230	10.0.8.0 (10.0r8)	NP-ICESI	6	10	149	12	14	Radio2.4Ghz	clon_ng_ac0
AP-TRD-G-20	192.168.14.189	9C5D1240C340	Universidad Icesi >> Campus_Principal >> Edificio C >> Piso 3	AP230	10.0.8.0 (10.0r8)	NP-ICESI	6	9	36	12	14	Radio2.4Ghz	clon_ng_ac0
AP-TRT-A-16	192.168.14.32	9C5D124072C0	Universidad Icesi >> Campus_Principal >> Edificio D >> Piso 2	AP230	10.0.7.1 (10.0r7a)	NP-ICESI	6	6	165	12	14	Radio2.4Ghz	clon_ng_ac0
AP-TRAM-E-15	192.168.14.187	D854A2D176C0	Universidad Icesi >> Campus_Principal >> Casa_SAE	AP230	10.0.7.1 (10.0r7a)	NP-ICESI	1	10	165	12	14	clon_ng_ng0	clon_ng_ac0
AP-TRJ-S-09	192.168.14.140	D854A210C100	Universidad Icesi >> Campus_Principal >> AAS >> Piso 2	AP230	10.0.7.1 (10.0r7a)	NP-ICESI	1	10	165	12	14	clon_ng_ng0	clon_ng_ac0
AP-TRAQ-A-05	192.168.14.84	F09CE9773B00	Universidad Icesi >> Campus_Principal >> TRAQ >> The Snack	AP1130	10.0.7.1 (10.0r7a)	NP-ICESI	6	10	165	12	14	clon_ng_ng0	clon_ng_ac0
AP-TRJ-V-10	192.168.14.175	D854A210B600	Universidad Icesi >> Campus_Principal >> AAS >> Piso 1	AP230	10.0.7.1 (10.0r7a)	NP-ICESI	6	5	157	12	14	clon_ng_ng0	clon_ng_ac0
AP-TRAV-C-07	192.168.14.118	9C5D128EECC0	Universidad Icesi >> Campus_Principal >> Edificio E >> Piso 4	AP230	10.0.7.1 (10.0r7a)	NP-ICESI	1	5	44	12	14	clon_ng_ng0	clon_ng_ac0
AP-TRAN-A-11	192.168.14.196	D854A210C340	Universidad Icesi >> Campus_Principal >> Casa_SAE	AP230	10.0.7.1 (10.0r7a)	NP-ICESI	1	10	40	12	14	clon_ng_ng0	clon_ng_ac0
